waves/core.vcd
$date
	Mon Jan  5 17:18:34 2026
$end
$version
	Icarus Verilog
$end
$timescale
	1ps
$end
$scope module tb_core $end
$var reg 1 ! clk $end
$var reg 1 " rst_n $end
$scope module dut $end
$var wire 1 ! clk $end
$var wire 32 # instr [31:0] $end
$var wire 1 " rst_n $end
$var wire 1 $ writes_rd $end
$var wire 2 % wb_sel [1:0] $end
$var wire 1 & valid $end
$var wire 1 ' uses_rs2 $end
$var wire 1 ( uses_rs1 $end
$var wire 3 ) rs2_idx [2:0] $end
$var wire 32 * rs2_data [31:0] $end
$var wire 3 + rs1_idx [2:0] $end
$var wire 32 , rs1_data [31:0] $end
$var wire 3 - rd_idx [2:0] $end
$var wire 2 . pc_sel [1:0] $end
$var wire 32 / pc_plus4 [31:0] $end
$var wire 32 0 pc [31:0] $end
$var wire 32 1 mem_addr [31:0] $end
$var wire 32 2 load_data [31:0] $end
$var wire 1 3 is_store $end
$var wire 1 4 is_load $end
$var wire 1 5 is_jump $end
$var wire 1 6 is_branch $end
$var wire 3 7 instr_type [2:0] $end
$var wire 32 8 imm [31:0] $end
$var wire 1 9 branch_taken $end
$var wire 32 : alu_result [31:0] $end
$var wire 3 ; alu_op [2:0] $end
$var reg 32 < wb_data [31:0] $end
$scope module u_decoder $end
$var wire 32 = instr [31:0] $end
$var wire 5 > rs2_temp [4:0] $end
$var wire 3 ? rs2_idx [2:0] $end
$var wire 5 @ rs1_temp [4:0] $end
$var wire 3 A rs1_idx [2:0] $end
$var wire 5 B rd_temp [4:0] $end
$var wire 3 C rd_idx [2:0] $end
$var wire 7 D opcode [6:0] $end
$var wire 7 E funct7 [6:0] $end
$var wire 3 F funct3 [2:0] $end
$var reg 3 G alu_op [2:0] $end
$var reg 32 H imm [31:0] $end
$var reg 3 I instr_type [2:0] $end
$var reg 1 6 is_branch $end
$var reg 1 5 is_jump $end
$var reg 1 4 is_load $end
$var reg 1 3 is_store $end
$var reg 2 J pc_sel [1:0] $end
$var reg 1 ( uses_rs1 $end
$var reg 1 ' uses_rs2 $end
$var reg 1 & valid $end
$var reg 2 K wb_sel [1:0] $end
$var reg 1 $ writes_rd $end
$upscope $end
$scope module u_execute $end
$var wire 3 L alu_op [2:0] $end
$var wire 32 M imm [31:0] $end
$var wire 1 6 is_branch $end
$var wire 1 4 is_load $end
$var wire 1 3 is_store $end
$var wire 1 ' uses_rs2 $end
$var wire 32 N rs2_data [31:0] $end
$var wire 32 O rs1_data [31:0] $end
$var wire 32 P alu_b [31:0] $end
$var reg 32 Q alu_result [31:0] $end
$var reg 1 9 branch_taken $end
$var reg 32 R mem_addr [31:0] $end
$upscope $end
$scope module u_memory $end
$var wire 32 S addr [31:0] $end
$var wire 1 ! clk $end
$var wire 1 4 is_load $end
$var wire 1 3 is_store $end
$var wire 8 T word_addr [7:0] $end
$var wire 32 U store_data [31:0] $end
$var reg 32 V load_data [31:0] $end
$upscope $end
$scope module u_pc $end
$var wire 1 9 branch_taken $end
$var wire 1 ! clk $end
$var wire 32 W imm [31:0] $end
$var wire 2 X pc_sel [1:0] $end
$var wire 1 " rst_n $end
$var wire 32 Y pc_plus4 [31:0] $end
$var reg 32 Z next_pc [31:0] $end
$var reg 32 [ pc [31:0] $end
$upscope $end
$scope module u_regfile $end
$var wire 1 ! clk $end
$var wire 32 \ rd_data [31:0] $end
$var wire 3 ] rd_idx [2:0] $end
$var wire 3 ^ rs1_idx [2:0] $end
$var wire 3 _ rs2_idx [2:0] $end
$var wire 1 " rst_n $end
$var wire 1 $ we $end
$var reg 32 ` rs1_data [31:0] $end
$var reg 32 a rs2_data [31:0] $end
$scope begin $unm_blk_30 $end
$var integer 32 b i [31:0] $end
$upscope $end
$upscope $end
$upscope $end
$upscope $end
$enddefinitions $end
#0
$dumpvars
b1000 b
b0 a
b0 `
b101 _
b0 ^
b1 ]
b101 \
b0 [
b100 Z
b100 Y
b0 X
b101 W
b0 V
b0 U
b0 T
b0 S
b0 R
b101 Q
b101 P
b0 O
b0 N
b101 M
b0 L
b1 K
b0 J
b1 I
b101 H
b0 G
b0 F
b0 E
b10011 D
b1 C
b1 B
b0 A
b0 @
b101 ?
b101 >
b10100000000000010010011 =
b101 <
b0 ;
b101 :
09
b101 8
b1 7
06
05
04
03
b0 2
b0 1
b0 0
b100 /
b0 .
b1 -
b0 ,
b0 +
b0 *
b101 )
1(
0'
1&
b1 %
1$
b10100000000000010010011 #
0"
0!
$end
#5000
b1000 b
1!
#10000
0!
#15000
b1000 b
1!
#20000
0!
1"
#25000
b1010 <
b1010 \
b1010 :
b1010 Q
b1010 P
b10 )
b10 ?
b10 _
b10 -
b10 C
b10 ]
b1010 >
b10 B
b101000000000000100010011 #
b101000000000000100010011 =
b1000 Z
b1010 8
b1010 H
b1010 M
b1010 W
b1 %
b1 K
b0 ;
b0 G
b0 L
1$
1(
1&
b1000 /
b1000 Y
b100 0
b100 [
1!
#30000
0!
#35000
b1111 <
b1111 \
b101 ,
b101 O
b101 `
b1111 :
b1111 Q
1'
b0 7
b0 I
b1 +
b1 A
b1 ^
b11 -
b11 C
b11 ]
b1010 P
b110011 D
b1 @
b10 >
b11 B
b0 8
b0 H
b0 M
b0 W
b1 %
b1 K
b0 ;
b0 G
b0 L
1$
1(
1&
b1010 *
b1010 N
b1010 U
b1010 a
b1100 Z
b1000001000000110110011 #
b1000001000000110110011 =
b1100 /
b1100 Y
b1000 0
b1000 [
1!
#40000
0!
#45000
b1111 P
b1111 :
b1111 Q
b0 <
b0 \
b1111 *
b1111 N
b1111 U
b1111 a
b0 ,
b0 O
b0 `
b0 +
b0 A
b0 ^
b11 )
b11 ?
b11 _
b0 -
b0 C
b0 ]
13
b100011 D
b10 F
b0 @
b11 >
b0 B
b1100000010000000100011 #
b1100000010000000100011 =
b10000 Z
b10 7
b10 I
b0 %
b0 K
b0 ;
b0 G
b0 L
0$
1'
1(
1&
b10000 /
b10000 Y
b1100 0
b1100 [
1!
#50000
0!
#55000
b1111 <
b1111 \
b1111 2
b1111 V
b0 :
b0 Q
b0 P
b0 *
b0 N
b0 U
b0 a
b0 T
14
b10 %
b10 K
1$
b0 )
b0 ?
b0 _
b100 -
b100 C
b100 ]
b0 1
b0 R
b0 S
b11 D
b0 >
b100 B
b0 8
b0 H
b0 M
b0 W
03
b1 7
b1 I
b0 ;
b0 G
b0 L
0'
1(
1&
b10100 Z
b10001000000011 #
b10001000000011 =
b10100 /
b10100 Y
b10000 0
b10000 [
1!
#60000
0!
#65000
b10000 :
b10000 Q
b1 P
b0 2
b0 V
b10000 <
b10000 \
b101 *
b101 N
b101 U
b101 a
b1111 ,
b1111 O
b1111 `
b100 +
b100 A
b100 ^
b1 )
b1 ?
b1 _
b101 -
b101 C
b101 ]
b1 8
b1 H
b1 M
b1 W
b10011 D
b0 F
b100 @
b1 >
b101 B
b100100000001010010011 #
b100100000001010010011 =
b11000 Z
04
b1 %
b1 K
b0 ;
b0 G
b0 L
1$
1(
1&
b11000 /
b11000 Y
b10100 0
b10100 [
1!
#70000
0!
#75000
b0 <
b0 \
bx *
bx N
bx U
bx a
bx ,
bx O
bx `
b0 :
b0 Q
bx +
bx A
bx ^
bx )
bx ?
bx _
bx -
bx C
bx ]
b0 P
bx D
bx F
bx E
bx @
bx >
bx B
b0 8
b0 H
b0 M
b0 W
b0 %
b0 K
b10 ;
b10 G
b10 L
0$
0(
0&
b11100 Z
bx #
bx =
b11100 /
b11100 Y
b11000 0
b11000 [
1!
#80000
0!
#85000
b100000 Z
b100000 /
b100000 Y
b11100 0
b11100 [
1!
#90000
0!
#95000
b100100 Z
b100100 /
b100100 Y
b100000 0
b100000 [
1!
#100000
0!
#105000
b101000 Z
b101000 /
b101000 Y
b100100 0
b100100 [
1!
#110000
0!
#115000
b101100 Z
b101100 /
b101100 Y
b101000 0
b101000 [
1!
#120000
0!
#125000
b110000 Z
b110000 /
b110000 Y
b101100 0
b101100 [
1!
#130000
0!
#135000
b110100 Z
b110100 /
b110100 Y
b110000 0
b110000 [
1!
#140000
0!
#145000
b111000 Z
b111000 /
b111000 Y
b110100 0
b110100 [
1!
#150000
0!
#155000
b111100 Z
b111100 /
b111100 Y
b111000 0
b111000 [
1!
#160000
0!
#165000
b1000000 Z
b1000000 /
b1000000 Y
b111100 0
b111100 [
1!
#170000
0!
#175000
b1000100 Z
b1000100 /
b1000100 Y
b1000000 0
b1000000 [
1!
#180000
0!
#185000
b1001000 Z
b1001000 /
b1001000 Y
b1000100 0
b1000100 [
1!
#190000
0!
#195000
b1001100 Z
b1001100 /
b1001100 Y
b1001000 0
b1001000 [
1!
#200000
0!
#205000
b1010000 Z
b1010000 /
b1010000 Y
b1001100 0
b1001100 [
1!
#210000
0!
#215000
b1010100 Z
b1010100 /
b1010100 Y
b1010000 0
b1010000 [
1!
#220000
0!
#225000
b1011000 Z
b1011000 /
b1011000 Y
b1010100 0
b1010100 [
1!
#230000
0!
#235000
b1011100 Z
b1011100 /
b1011100 Y
b1011000 0
b1011000 [
1!
#240000
0!
#245000
b1100000 Z
b1100000 /
b1100000 Y
b1011100 0
b1011100 [
1!
#250000
0!
#255000
b1100100 Z
b1100100 /
b1100100 Y
b1100000 0
b1100000 [
1!
#260000
0!
#265000
b1101000 Z
b1101000 /
b1101000 Y
b1100100 0
b1100100 [
1!
#270000
0!
#275000
b1101100 Z
b1101100 /
b1101100 Y
b1101000 0
b1101000 [
1!
#280000
0!
#285000
b1110000 Z
b1110000 /
b1110000 Y
b1101100 0
b1101100 [
1!
#290000
0!
#295000
b1110100 Z
b1110100 /
b1110100 Y
b1110000 0
b1110000 [
1!
#300000
0!
#305000
b1111000 Z
b1111000 /
b1111000 Y
b1110100 0
b1110100 [
1!
#310000
0!
#315000
b1111100 Z
b1111100 /
b1111100 Y
b1111000 0
b1111000 [
1!
#320000
0!
#325000
b10000000 Z
b10000000 /
b10000000 Y
b1111100 0
b1111100 [
1!
#330000
0!
#335000
b10000100 Z
b10000100 /
b10000100 Y
b10000000 0
b10000000 [
1!
#340000
0!
#345000
b10001000 Z
b10001000 /
b10001000 Y
b10000100 0
b10000100 [
1!
#350000
0!
#355000
b10001100 Z
b10001100 /
b10001100 Y
b10001000 0
b10001000 [
1!
#360000
0!
#365000
b10010000 Z
b10010000 /
b10010000 Y
b10001100 0
b10001100 [
1!
#370000
0!
#375000
b10010100 Z
b10010100 /
b10010100 Y
b10010000 0
b10010000 [
1!
#380000
0!
#385000
b10011000 Z
b10011000 /
b10011000 Y
b10010100 0
b10010100 [
1!
#390000
0!
#395000
b10011100 Z
b10011100 /
b10011100 Y
b10011000 0
b10011000 [
1!
#400000
0!
#405000
b10100000 Z
b10100000 /
b10100000 Y
b10011100 0
b10011100 [
1!
#410000
0!
#415000
b10100100 Z
b10100100 /
b10100100 Y
b10100000 0
b10100000 [
1!
#420000
0!
#425000
b10101000 Z
b10101000 /
b10101000 Y
b10100100 0
b10100100 [
1!
#430000
0!
#435000
b10101100 Z
b10101100 /
b10101100 Y
b10101000 0
b10101000 [
1!
#440000
0!
#445000
b10110000 Z
b10110000 /
b10110000 Y
b10101100 0
b10101100 [
1!
#450000
0!
#455000
b10110100 Z
b10110100 /
b10110100 Y
b10110000 0
b10110000 [
1!
#460000
0!
#465000
b10111000 Z
b10111000 /
b10111000 Y
b10110100 0
b10110100 [
1!
#470000
0!
#475000
b10111100 Z
b10111100 /
b10111100 Y
b10111000 0
b10111000 [
1!
#480000
0!
#485000
b11000000 Z
b11000000 /
b11000000 Y
b10111100 0
b10111100 [
1!
#490000
0!
#495000
b11000100 Z
b11000100 /
b11000100 Y
b11000000 0
b11000000 [
1!
